\relax 
\@writefile{toc}{\contentsline {section}{\numberline {1}Introduction}{1}}
\@writefile{toc}{\contentsline {section}{\numberline {2}Implementation}{1}}
\@writefile{toc}{\contentsline {section}{\numberline {3}Results}{1}}
\@writefile{toc}{\contentsline {subsection}{\numberline {3.1}Overview}{1}}
\@writefile{toc}{\contentsline {subsection}{\numberline {3.2}Lists}{2}}
\@writefile{toc}{\contentsline {subsection}{\numberline {3.3}Trees}{3}}
\@writefile{toc}{\contentsline {subsubsection}{\numberline {3.3.1}Scaled to fit everyting}{3}}
\@writefile{toc}{\contentsline {subsubsection}{\numberline {3.3.2}Coarse grained}{4}}
